{
  "modelPackage": "com.rkaaya.toucanopenapi.client.model",
  "apiPackage": "com.rkaaya.toucanopenapi.client.api",
  "useRuntimeException": true,
  "hideGenerationTimeStamp": true,
  "openApiNullable": false,
  "template": "spring-boot",
  "interfaceOnly": true,
  "generateAliasAsModel": true,
  "serializableModel": true
}